{
  "images" : [
    {
      "idiom" : "universal",
      "scale" : "1x",
      "filename" : "move13.png"
    },
    {
      "idiom" : "universal",
      "scale" : "2x",
      "filename" : "next15 (1).png"
    },
    {
      "idiom" : "universal",
      "scale" : "3x",
      "filename" : "next15.png"
    }
  ],
  "info" : {
    "version" : 1,
    "author" : "xcode"
  }
}